…
R> library("queuecomputer") 

R> arriv <- cumsum(rexp(100)) 

R> head(arrivals) 

[1] 0.693512 1.693399 2.425550 3.952405 3.961906 4.405492 

R> servic <- rexp(100) 

R> departur <- queue_step(arrivals, servic = service, server = 2) 

R> departur 

# A tibble: 100 × 6 
arriv servic departur wait system_tim server 

<dbl> <dbl> <dbl> <dbl> <dbl> <dbl> 

1 0.693512 0.830158956 1.523671 0.000000e+00 0.830158956 1 

2 1.693399 0.817648174 2.511047 1.110223e-16 0.817648174 2 

3 2.425550 0.002675641 2.428226 2.138047e-16 0.002675641 1 

4 3.952405 0.667180991 4.619586 4.440892e-16 0.667180991 1 

5 3.961906 0.551920432 4.513827 4.440892e-16 0.551920432 2 

6 4.405492 1.069236762 5.583063 1.083341e-01 1.177570886 2 

7 4.594253 1.110448926 5.730035 2.533279e-02 1.135781711 1 

8 4.993053 0.766944956 6.350008 5.900099e-01 1.356954853 2 

9 6.047412 0.805061421 6.852474 1.110223e-16 0.805061421 1 

10 6.856338 1.317802131 8.174140 0.000000e+00 1.317802131 2 

# ... with 90 more row 
…
servic 

wait 

line rang plot of custom and server statu 

figur 5: wait and servic time for each customer. 

take (smart/manu gate) by that passeng route_imm, the arriv time to immigr after 
they walk through the termin arrival_imm and the servic time need by the passeng 
at their immigr queue system service_imm. 

R> passenger_df 

## # A tibble: 25,012 × 7 
## ID flightno arriv route_imm arrive_imm service_imm 

## <chr> <fctr> <dbl> <fctr> <dbl> <dbl> 

## 1 cordell, megan abi481 564.85 manual 566.8549 0.29075606 

## 2 matheson, dylan abi481 564.85 manual 566.8532 0.15927226 

## 3 avitia, rene abi481 564.85 manual 567.2014 0.22450319 

## 4 woods, tyrel abi481 564.85 smart gate 566.8377 0.18222445 

## 5 pope, christiana abi481 564.85 smart gate 566.0994 0.09031344 

## 6 espinoza, mariah abi481 564.85 smart gate 566.8928 0.43900281 

## 7 pacheco, charleen abi481 564.85 manual 567.5558 0.12917143 

## 8 harmon, brendan abi481 564.85 smart gate 566.3114 0.30565961 

## 9 william, gerardo abi481 564.85 smart gate 567.2563 0.31975687 

## 10 hood, colen abi481 564.85 smart gate 567.2181 0.33944458 

## # ... with 25,002 more rows, and 1 more variables: bag_tim <dbl> 
…
R> passenger_df %>% 

+ select(flightno, arrive_imm, departures_imm, departures_bc) 



anthoni ebert, paul wu, kerri mengersen, fabrizio ruggeri 21 

figur 7: diagram of larg airport scenario, there be 120 flight in total and two multi-serv 
queue system oper in parallel. passeng be preassign to travel through either the 
“manual” or “smart gate” rout through immigration. the passeng and bag be “forked” 
when each aircraft arriv be be “joined” at the baggag hall. 

## # A tibble: 25,012 × 4 
## flightno arrive_imm departures_imm departures_bc 

## <fctr> <dbl> <dbl> <dbl> 

## 1 abi481 566.8549 578.8443 578.8443 

## 2 abi481 566.8532 578.6479 578.6479 

## 3 abi481 567.2014 579.6133 579.6133 

## 4 abi481 566.8377 571.9148 574.6535 

## 5 abi481 566.0994 570.2073 574.7161 

## 6 abi481 566.8928 572.2135 574.7912 

## 7 abi481 567.5558 579.9953 579.9953 

## 8 abi481 566.3114 570.6290 574.8944 

## 9 abi481 567.2563 573.3438 574.8996 

## 10 abi481 567.2181 573.1459 574.9295 

## # ... with 25,002 more row 
…
