…
R> library("queuecomputer") 

R> arrival <- cumsum(rexp(100)) 

R> head(arrivals) 

[1] 0.693512 1.693399 2.425550 3.952405 3.961906 4.405492 

R> service <- rexp(100) 

R> departure <- queue_step(arrivals, service = service, server = 2) 

R> departure 

# A tibble: 100 × 6 
arrival service departure wait system_time server 

<dbl> <dbl> <dbl> <dbl> <dbl> <dbl> 

1 0.693512 0.830158956 1.523671 0.000000e+00 0.830158956 1 

2 1.693399 0.817648174 2.511047 1.110223e-16 0.817648174 2 

3 2.425550 0.002675641 2.428226 2.138047e-16 0.002675641 1 

4 3.952405 0.667180991 4.619586 4.440892e-16 0.667180991 1 

5 3.961906 0.551920432 4.513827 4.440892e-16 0.551920432 2 

6 4.405492 1.069236762 5.583063 1.083341e-01 1.177570886 2 

7 4.594253 1.110448926 5.730035 2.533279e-02 1.135781711 1 

8 4.993053 0.766944956 6.350008 5.900099e-01 1.356954853 2 

9 6.047412 0.805061421 6.852474 1.110223e-16 0.805061421 1 

10 6.856338 1.317802131 8.174140 0.000000e+00 1.317802131 2 

# ... with 90 more row 
…
service 

wait 

Line range plot of customer and server status 

Figure 5: Waiting and service time for each customer. 

take (smart/manual gate) by that passenger route_imm, the arrival time to immigration after 
they walk through the terminal arrival_imm and the service time need by the passenger 
at their immigration queue system service_imm. 

R> Passenger_df 

## # A tibble: 25,012 × 7 
## ID FlightNo arrival route_imm arrive_imm service_imm 

## <chr> <fctr> <dbl> <fctr> <dbl> <dbl> 

## 1 Cordell, Megan ABI481 564.85 manual 566.8549 0.29075606 

## 2 Matheson, Dylan ABI481 564.85 manual 566.8532 0.15927226 

## 3 Avitia, Renee ABI481 564.85 manual 567.2014 0.22450319 

## 4 Woods, Tyrel ABI481 564.85 smart gate 566.8377 0.18222445 

## 5 Pope, Christiana ABI481 564.85 smart gate 566.0994 0.09031344 

## 6 Espinoza, Mariah ABI481 564.85 smart gate 566.8928 0.43900281 

## 7 Pacheco, Charleen ABI481 564.85 manual 567.5558 0.12917143 

## 8 Harmon, Brendan ABI481 564.85 smart gate 566.3114 0.30565961 

## 9 William, Gerardo ABI481 564.85 smart gate 567.2563 0.31975687 

## 10 Hood, Colen ABI481 564.85 smart gate 567.2181 0.33944458 

## # ... with 25,002 more rows, and 1 more variables: bag_time <dbl> 
…
R> Passenger_df %>% 

+ select(FlightNo, arrive_imm, departures_imm, departures_bc) 



Anthony Ebert, Paul Wu, Kerrie Mengersen, Fabrizio Ruggeri 21 

Figure 7: Diagram of large airport scenario, there be 120 flight in total and two multi-server 
queue system operate in parallel. Passengers be preassigned to travel through either the 
“manual” or “smart gate” route through immigration. The passenger and bag be “forked” 
when each aircraft arrives be be “joined” at the baggage hall. 

## # A tibble: 25,012 × 4 
## FlightNo arrive_imm departures_imm departures_bc 

## <fctr> <dbl> <dbl> <dbl> 

## 1 ABI481 566.8549 578.8443 578.8443 

## 2 ABI481 566.8532 578.6479 578.6479 

## 3 ABI481 567.2014 579.6133 579.6133 

## 4 ABI481 566.8377 571.9148 574.6535 

## 5 ABI481 566.0994 570.2073 574.7161 

## 6 ABI481 566.8928 572.2135 574.7912 

## 7 ABI481 567.5558 579.9953 579.9953 

## 8 ABI481 566.3114 570.6290 574.8944 

## 9 ABI481 567.2563 573.3438 574.8996 

## 10 ABI481 567.2181 573.1459 574.9295 

## # ... with 25,002 more row 
…
22 queuecomputer: Computationally Efficient Simulation of Queues 

+ group_by(FlightNo, route_imm) %>% 

+ summarise( 

+ waiting_imm = mean(departures_imm - service_imm - arrive_imm), 

+ waiting_bc = mean(departures_bc - departures_imm) 

+ ) 

## Source: local data frame [240 x 4] 

## Groups: FlightNo [?] 

## 

## FlightNo route_imm waiting_imm waiting_bc 

## <fctr> <fctr> <dbl> <dbl> 

## 1 ABI481 manual 11.2718493 6.292506 

## 2 ABI481 smart gate 4.9586928 12.276112 

## 3 AEB843 manual 0.8497289 16.594387 

## 4 AEB843 smart gate 1.0133830 16.412237 

## 5 ARH364 manual 12.5063642 3.795084 

## 6 ARH364 smart gate 7.3569441 8.169201 

## 7 BCH445 manual 1.8033024 13.700561 

## 8 BCH445 smart gate 1.4368622 15.087956 

## 9 BJN726 manual 19.5150170 2.064476 

## 10 BJN726 smart gate 7.2110772 9.751714 

## # ... with 230 more row 
…
